<?xml version="1.0" encoding="UTF-8" standalone="no"?>
<svg
   xmlns:dc="http://purl.org/dc/elements/1.1/"
   xmlns:cc="http://creativecommons.org/ns#"
   xmlns:rdf="http://www.w3.org/1999/02/22-rdf-syntax-ns#"
   xmlns:svg="http://www.w3.org/2000/svg"
   xmlns="http://www.w3.org/2000/svg"
   xmlns:sodipodi="http://sodipodi.sourceforge.net/DTD/sodipodi-0.dtd"
   xmlns:inkscape="http://www.inkscape.org/namespaces/inkscape"
   id="svg8"
   version="1.1"
   viewBox="0 0 200 200"
   height="150"
   width="150"
   sodipodi:docname="house.svg"
   inkscape:version="0.92.5 (2060ec1f9f, 2020-04-08)">
  <metadata
     id="metadata919">
    <rdf:RDF>
      <cc:Work
         rdf:about="">
        <dc:format>image/svg+xml</dc:format>
        <dc:type
           rdf:resource="http://purl.org/dc/dcmitype/StillImage" />
      </cc:Work>
    </rdf:RDF>
  </metadata>
  <sodipodi:namedview
     pagecolor="#ffffff"
     bordercolor="#666666"
     borderopacity="1"
     objecttolerance="10"
     gridtolerance="10"
     guidetolerance="10"
     inkscape:pageopacity="0"
     inkscape:pageshadow="2"
     inkscape:window-width="1920"
     inkscape:window-height="1017"
     id="namedview917"
     showgrid="false"
     inkscape:zoom="2.2983333"
     inkscape:cx="108.84416"
     inkscape:cy="43.170683"
     inkscape:window-x="0"
     inkscape:window-y="26"
     inkscape:window-maximized="1"
     inkscape:current-layer="svg8" />
  <defs
     id="defs2" />
  <g
     id="layer1"
     transform="matrix(1.3119292,0,0,1.3119292,-43.721144,-91.450061)">
    <path
       id="path826"
       d="M 51.480922,198.08824 H 167.61801 v -8.00522 h -10.46832 v -51.97225 h 10.46832 L 109.54946,93.897386 51.480922,138.11077 h 11.330447 v 51.97225 H 51.480922 Z"
       style="fill:#000000;fill-opacity:1;stroke:#000000;stroke-width:0.97535402px;stroke-linecap:butt;stroke-linejoin:miter;stroke-opacity:1"
       inkscape:connector-curvature="0" />
    <path
       id="rect828"
       d="m 82.516474,152.52012 h 20.690386 v 37.5629 H 82.516474 Z"
       style="fill:#ffffff;fill-opacity:1;stroke:none;stroke-width:0.97535402"
       inkscape:connector-curvature="0" />
    <path
       id="rect830"
       d="m 117.98568,152.52012 h 17.98094 v 19.21255 h -17.98094 z"
       style="fill:#ffffff;fill-opacity:1;stroke:none;stroke-width:0.97535402"
       inkscape:connector-curvature="0" />
  </g>
</svg>
